<svg width="24" height="24" viewBox="0 0 24 24" fill="none" xmlns="http://www.w3.org/2000/svg">
<path d="M17.522 9.73901L12 15.261L6.47803 9.73901" stroke="white" stroke-width="2" stroke-linecap="round" stroke-linejoin="round"/>
</svg>
