<svg width="25" height="25" viewBox="0 0 25 25" fill="none" xmlns="http://www.w3.org/2000/svg">
<g clip-path="url(#clip0_3698_2191)">
<path d="M4.75172 5.20557C4.47181 5.20557 4.24463 5.43274 4.24463 5.71266C4.24463 5.99257 4.47181 6.21975 4.75172 6.21975H6.72533L7.15027 7.81126C7.15306 7.83155 7.15711 7.85183 7.16244 7.87186L8.78514 13.9367C8.7864 13.9418 8.78843 13.9466 8.78995 13.9516L9.33305 15.9853C9.39187 16.2074 9.59268 16.3616 9.8229 16.3616H17.9364C18.2163 16.3616 18.4435 16.1344 18.4435 15.8545C18.4435 15.5746 18.2163 15.3474 17.9364 15.3474H10.2123L9.92761 14.2805L18.9759 13.8251C19.2102 13.813 19.4069 13.6416 19.4495 13.4103L20.4637 7.83231C20.4911 7.68322 20.4505 7.53109 20.3542 7.41649C20.2579 7.30087 20.1149 7.23394 19.9648 7.23394H8.04605L7.60488 5.58183C7.54605 5.35972 7.34525 5.20557 7.11503 5.20557H4.75172ZM14.3862 8.12135C14.6661 8.12135 14.8933 8.34853 14.8933 8.62844V10.2765H16.5414C16.8213 10.2765 17.0485 10.5037 17.0485 10.7836C17.0485 11.0635 16.8213 11.2907 16.5414 11.2907H14.8933V12.9387C14.8933 13.2186 14.6661 13.4458 14.3862 13.4458C14.1063 13.4458 13.8791 13.2186 13.8791 12.9387V11.2907H12.2311C11.9512 11.2907 11.724 11.0635 11.724 10.7836C11.724 10.5037 11.9512 10.2765 12.2311 10.2765H13.8791V8.62844C13.8791 8.34853 14.1063 8.12135 14.3862 8.12135ZM10.8368 17.3758C9.99658 17.3758 9.31555 18.0568 9.31555 18.8971C9.31555 19.7373 9.99658 20.4183 10.8368 20.4183C11.6771 20.4183 12.3581 19.7373 12.3581 18.8971C12.3581 18.0568 11.6771 17.3758 10.8368 17.3758ZM16.9217 17.3758C16.0814 17.3758 15.4004 18.0568 15.4004 18.8971C15.4004 19.7373 16.0814 20.4183 16.9217 20.4183C17.7619 20.4183 18.443 19.7373 18.443 18.8971C18.443 18.0568 17.7619 17.3758 16.9217 17.3758Z" fill="white"/>
</g>
<defs>
<clipPath id="clip0_3698_2191">
<rect width="24" height="24" fill="white" transform="translate(0.5 0.954102)"/>
</clipPath>
</defs>
</svg>
