<svg width="143" height="148" viewBox="0 0 143 148" fill="none" xmlns="http://www.w3.org/2000/svg">
<rect width="143" height="148" fill="#E59000"/>
<path d="M33.2704 97V61H26.3704V55H46.7704V61H39.8704V97H33.2704ZM56.2602 97V79.12L48.2802 55H55.3002L59.8002 70.42H59.9202L64.4202 55H70.8402L62.8602 79.12V97H56.2602ZM73.8135 97V55H83.5935C90.4335 55 93.3735 58.18 93.3735 64.66V67.24C93.3735 71.56 91.9935 74.32 89.0535 75.52V75.64C92.3535 76.66 93.4335 79.78 93.4335 84.52V91.9C93.4335 93.94 93.4935 95.44 94.1535 97H87.4335C87.0735 95.92 86.8335 95.26 86.8335 91.84V84.16C86.8335 80.26 85.6935 79 82.6935 79H80.4135V97H73.8135ZM80.4135 73H82.8135C85.2735 73 86.7735 71.92 86.7735 68.56V65.32C86.7735 62.32 85.7535 61 83.4135 61H80.4135V73ZM98.0127 97V55H116.013V61H104.613V72.1H113.673V78.1H104.613V91H116.013V97H98.0127ZM29.5367 122L27.8327 105.2H30.3767L31.5527 118.112H31.6007L32.8487 105.2H35.7287L36.9767 118.112H37.0247L38.2007 105.2H40.4807L38.7767 122H35.4887L34.2887 110.672H34.2407L33.0407 122H29.5367ZM40.7919 122L43.5279 105.2H47.1039L49.8399 122H47.1999L46.7199 118.664V118.712H43.7199L43.2399 122H40.7919ZM44.0319 116.432H46.4079L45.2319 108.128H45.1839L44.0319 116.432ZM51.1207 122V105.2H55.0327C57.7687 105.2 58.9447 106.472 58.9447 109.064V110.096C58.9447 111.824 58.3927 112.928 57.2167 113.408V113.456C58.5367 113.864 58.9687 115.112 58.9687 117.008V119.96C58.9687 120.776 58.9927 121.376 59.2567 122H56.5687C56.4247 121.568 56.3287 121.304 56.3287 119.936V116.864C56.3287 115.304 55.8727 114.8 54.6727 114.8H53.7607V122H51.1207ZM53.7607 112.4H54.7207C55.7047 112.4 56.3047 111.968 56.3047 110.624V109.328C56.3047 108.128 55.8967 107.6 54.9607 107.6H53.7607V112.4ZM60.8004 122V105.2H68.0004V107.6H63.4404V112.04H67.0644V114.44H63.4404V119.6H68.0004V122H60.8004ZM69.5192 122V105.2H72.1592V112.04H74.9912V105.2H77.6312V122H74.9912V114.44H72.1592V122H69.5192ZM83.4133 122.24C80.8213 122.24 79.4053 120.704 79.4053 118.016V109.184C79.4053 106.496 80.8213 104.96 83.4133 104.96C86.0053 104.96 87.4213 106.496 87.4213 109.184V118.016C87.4213 120.704 86.0053 122.24 83.4133 122.24ZM83.4133 119.84C84.2533 119.84 84.7813 119.384 84.7813 118.184V109.016C84.7813 107.816 84.2533 107.36 83.4133 107.36C82.5733 107.36 82.0453 107.816 82.0453 109.016V118.184C82.0453 119.384 82.5733 119.84 83.4133 119.84ZM93.0467 122.24C90.4547 122.24 89.1107 120.704 89.1107 118.016V105.2H91.7507V118.208C91.7507 119.408 92.2547 119.84 93.0947 119.84C93.9347 119.84 94.4387 119.408 94.4387 118.208V105.2H96.9827V118.016C96.9827 120.704 95.6387 122.24 93.0467 122.24ZM102.295 122.24C99.7029 122.24 98.4069 120.704 98.4069 118.016V117.056H100.903V118.208C100.903 119.408 101.431 119.84 102.271 119.84C103.111 119.84 103.639 119.408 103.639 118.16C103.639 116.768 103.111 115.88 101.383 114.368C99.1749 112.424 98.4549 111.056 98.4549 109.136C98.4549 106.496 99.8229 104.96 102.391 104.96C104.959 104.96 106.231 106.496 106.231 109.184V109.88H103.735V109.016C103.735 107.816 103.255 107.36 102.415 107.36C101.575 107.36 101.095 107.816 101.095 108.968C101.095 110.192 101.647 111.08 103.375 112.592C105.583 114.536 106.279 115.88 106.279 117.968C106.279 120.704 104.887 122.24 102.295 122.24ZM107.793 122V105.2H114.993V107.6H110.433V112.04H114.057V114.44H110.433V119.6H114.993V122H107.793Z" fill="white"/>
</svg>
