<svg width="25" height="25" viewBox="0 0 25 25" fill="none" xmlns="http://www.w3.org/2000/svg">
<path d="M13.39 18.8104C13.1407 18.7203 12.8658 18.7329 12.6258 18.8454C12.3858 18.9579 12.2003 19.1611 12.11 19.4104L11.38 21.4104C11.29 21.6597 11.3026 21.9346 11.4151 22.1746C11.5276 22.4146 11.7308 22.6001 11.98 22.6904C12.089 22.7299 12.2041 22.7502 12.32 22.7504C12.5255 22.7503 12.726 22.6869 12.8942 22.5688C13.0624 22.4507 13.1901 22.2837 13.26 22.0904L13.99 20.0904C14.0801 19.8411 14.0675 19.5662 13.955 19.3262C13.8425 19.0862 13.6393 18.9006 13.39 18.8104ZM9.39002 18.8104C9.14071 18.7203 8.86584 18.7329 8.62583 18.8454C8.38581 18.9579 8.20028 19.1611 8.11002 19.4104L7.38002 21.4104C7.28996 21.6597 7.30257 21.9346 7.41507 22.1746C7.52758 22.4146 7.73078 22.6001 7.98002 22.6904C8.08902 22.7299 8.20407 22.7502 8.32002 22.7504C8.52553 22.7503 8.72603 22.6869 8.89423 22.5688C9.06242 22.4507 9.19015 22.2837 9.26002 22.0904L9.99002 20.0904C10.0801 19.8411 10.0675 19.5662 9.95497 19.3262C9.84246 19.0862 9.63926 18.9006 9.39002 18.8104ZM9.39002 11.8104C9.14071 11.7203 8.86584 11.7329 8.62583 11.8454C8.38581 11.9579 8.20028 12.1611 8.11002 12.4104L7.01002 15.4104C6.95544 15.5614 6.938 15.7233 6.9592 15.8824C6.98039 16.0415 7.03959 16.1932 7.13179 16.3247C7.22398 16.4561 7.34647 16.5634 7.48889 16.6375C7.63131 16.7116 7.78948 16.7503 7.95002 16.7504C8.15553 16.7503 8.35603 16.6869 8.52423 16.5688C8.69242 16.4507 8.82015 16.2837 8.89002 16.0904L9.99002 13.0904C10.0801 12.8411 10.0675 12.5662 9.95497 12.3262C9.84246 12.0862 9.63926 11.9006 9.39002 11.8104ZM13.39 11.8104C13.1407 11.7203 12.8658 11.7329 12.6258 11.8454C12.3858 11.9579 12.2003 12.1611 12.11 12.4104L11.01 15.4104C10.9554 15.5614 10.938 15.7233 10.9592 15.8824C10.9804 16.0415 11.0396 16.1932 11.1318 16.3247C11.224 16.4561 11.3465 16.5634 11.4889 16.6375C11.6313 16.7116 11.7895 16.7503 11.95 16.7504C12.1555 16.7503 12.356 16.6869 12.5242 16.5688C12.6924 16.4507 12.8201 16.2837 12.89 16.0904L13.99 13.0904C14.0801 12.8411 14.0675 12.5662 13.955 12.3262C13.8425 12.0862 13.6393 11.9006 13.39 11.8104ZM18.92 6.97038C18.309 5.56639 17.2545 4.40146 15.9181 3.65411C14.5817 2.90676 13.0371 2.61822 11.521 2.83269C10.0049 3.04717 8.60095 3.75284 7.52427 4.84156C6.4476 5.93028 5.75761 7.342 5.56002 8.86038C4.68743 9.07135 3.91118 9.56971 3.35615 10.2753C2.80111 10.9809 2.49957 11.8527 2.50002 12.7504C2.49823 13.3168 2.61677 13.8771 2.84777 14.3943C3.07878 14.9115 3.41699 15.3737 3.84002 15.7504C3.93738 15.8439 4.05266 15.9167 4.17892 15.9645C4.30518 16.0123 4.4398 16.034 4.57467 16.0283C4.70955 16.0226 4.84188 15.9897 4.96369 15.9316C5.0855 15.8734 5.19428 15.7911 5.28346 15.6898C5.37264 15.5885 5.44037 15.4701 5.48259 15.3419C5.5248 15.2137 5.54062 15.0782 5.52909 14.9437C5.51755 14.8092 5.47891 14.6785 5.41548 14.5593C5.35205 14.4401 5.26515 14.3351 5.16002 14.2504C4.95032 14.0611 4.78309 13.8296 4.66933 13.5711C4.55557 13.3125 4.49787 13.0328 4.50002 12.7504C4.50002 12.22 4.71073 11.7112 5.08581 11.3362C5.46088 10.9611 5.96959 10.7504 6.50002 10.7504C6.76524 10.7504 7.01959 10.645 7.20713 10.4575C7.39466 10.27 7.50002 10.0156 7.50002 9.75038C7.50257 8.56766 7.92431 7.42414 8.69029 6.52297C9.45627 5.6218 10.5169 5.02133 11.6838 4.82826C12.8506 4.63518 14.0482 4.86199 15.0636 5.46839C16.079 6.07479 16.8466 7.02152 17.23 8.14038C17.2872 8.31222 17.3899 8.46531 17.5273 8.58332C17.6647 8.70132 17.8315 8.7798 18.01 8.81038C18.7042 8.93012 19.3341 9.29031 19.7893 9.82785C20.2446 10.3654 20.4962 11.046 20.5 11.7504C20.5153 12.4867 20.2509 13.2014 19.76 13.7504C19.6004 13.9492 19.5227 14.2015 19.5429 14.4556C19.563 14.7098 19.6795 14.9467 19.8686 15.1178C20.0576 15.289 20.3048 15.3814 20.5597 15.3763C20.8147 15.3712 21.058 15.2689 21.24 15.0904C21.7908 14.4609 22.1749 13.7034 22.3572 12.8871C22.5394 12.0707 22.5139 11.2217 22.2831 10.4178C22.0523 9.61389 21.6234 8.88071 21.0359 8.28542C20.4483 7.69012 19.7209 7.25173 18.92 7.01038V6.97038ZM17.39 18.8104C17.1407 18.7203 16.8658 18.7329 16.6258 18.8454C16.3858 18.9579 16.2003 19.1611 16.11 19.4104L15.38 21.4104C15.29 21.6597 15.3026 21.9346 15.4151 22.1746C15.5276 22.4146 15.7308 22.6001 15.98 22.6904C16.089 22.7299 16.2041 22.7502 16.32 22.7504C16.5255 22.7503 16.726 22.6869 16.8942 22.5688C17.0624 22.4507 17.1901 22.2837 17.26 22.0904L17.99 20.0904C18.0801 19.8411 18.0675 19.5662 17.955 19.3262C17.8425 19.0862 17.6393 18.9006 17.39 18.8104ZM17.39 11.8104C17.1407 11.7203 16.8658 11.7329 16.6258 11.8454C16.3858 11.9579 16.2003 12.1611 16.11 12.4104L15.01 15.4104C14.9554 15.5614 14.938 15.7233 14.9592 15.8824C14.9804 16.0415 15.0396 16.1932 15.1318 16.3247C15.224 16.4561 15.3465 16.5634 15.4889 16.6375C15.6313 16.7116 15.7895 16.7503 15.95 16.7504C16.1555 16.7503 16.356 16.6869 16.5242 16.5688C16.6924 16.4507 16.8201 16.2837 16.89 16.0904L17.99 13.0904C18.0801 12.8411 18.0675 12.5662 17.955 12.3262C17.8425 12.0862 17.6393 11.9006 17.39 11.8104Z" fill="white"/>
</svg>
